data update 180706 -> 191011
…
sc <- readRDS(infile.seqinfo.current) %>% filter(type != "IN") %>% select(seqID, 
    newnum, seqy, seqm) %>% rename(cur.newnum = newnum, cur.seqy = seqy, cur.seqm = seqm)
su <- readRDS(infile.seqinfo.update) %>% filter(type != "IN") %>% select(seqID, 
    newnum, type, seqy, seqm) %>% rename(upd.newnum = newnum, upd.seqy = seqy, 
    upd.seqm = seqm)
ss <- sc %>% full_join(su, by = "seqID")

Test 1 (fail)

I was expecting that every old seqID is part of the new data, but this does not appear to be true:

ss %>% filter(is.na(upd.newnum))
#> # A tibble: 3,283 x 8
#>    seqID    cur.newnum cur.seqy cur.seqm upd.newnum type  upd.seqy upd.seqm
#>    <chr>         <dbl>    <dbl>    <dbl>      <dbl> <chr>    <dbl>    <dbl>
#>  1 PR/RT-0…        876     2017        3         NA <NA>        NA       NA
#>  2 PR/RT-0…       1467     2017        2         NA <NA>        NA       NA
#>  3 PR/RT-0…       1549     2017        3         NA <NA>        NA       NA
#>  4 PR/RT-0…       1577     2017        3         NA <NA>        NA       NA
#>  5 PR/RT-0…       3970     2017        4         NA <NA>        NA       NA
#>  6 PR/RT-0…       9638     2017        3         NA <NA>        NA       NA
#>  7 PR/RT-0…       9638     2017        4         NA <NA>        NA       NA
#>  8 PR/RT-0…       9728     2017        3         NA <NA>        NA       NA
#>  9 PR/RT-0…       9801     2017        3         NA <NA>        NA       NA
#> 10 PR/RT-0…      11244     2017        3         NA <NA>        NA       NA
#> # … with 3,273 more rows
…
I was expecting that the same seqIDs in the new and old data sets have the same sequence, which does not seem to be true.

seq.ids <- ss %>% filter(!is.na(upd.newnum) & !is.na(cur.newnum)) %>% pull(seqID)
seqc <- read.dna(infile.seq.current, format = "fa")
sequ <- read.dna(infile.seq.update, format = "fa")
test <- sapply(seq_along(seq.ids), function(i) {
    cur <- paste(unlist(as.character(seqc[seq.ids[i]])), collapse = "")
    upd <- paste(unlist(as.character(sequ[seq.ids[i]])), collapse = "")
    cur == upd
})
test <- tibble(seqID = seq.ids, identical = test)
test.fail <- test %>% filter(!identical)
test.fail
#> # A tibble: 6,659 x 2
#>    seqID        identical
#>    <chr>        <lgl>    
#>  1 PR/RT-000076 FALSE    
#>  2 PR/RT-000077 FALSE    
#>  3 PR/RT-000079 FALSE    
#>  4 PR/RT-000080 FALSE    
#>  5 PR/RT-000082 FALSE    
#>  6 PR/RT-000084 FALSE    
#>  7 PR/RT-000085 FALSE    
#>  8 PR/RT-000086 FALSE    
#>  9 PR/RT-000087 FALSE    
#> 10 PR/RT-000089 FALSE    
#> # … with 6,649 more rows
…
